glow_and_shine
7,2,1,1,5,2,5,1,1,2,5,7,2,1,1,5,2,5,1,1,2,5
0,0,0,0,0,0,0,0,0,0,0,0,0,0
0,0,0,0,0,0,0,0,0,0,0,0,0,0
0,0,0,0,0,0,0,0,0,0,0,0,0,0
7,2,1,1,5,2,5,1,1,2,5,7,2,1,1,5,2,5,1,1,2,5
6,2,0,2,5,7,5,2,0,2,6,6,2,0,2,5,7,5,2,0,2,6
5,2,0,2,5,7,5,2,0,2,7
5,2,2,6,6,6,6,6,2,2,7
